module gitlab.com/yoanyombapro/CubeMicroservices/common

go 1.13

require (
	github.com/afex/hystrix-go v0.0.0-20180502004556-fa1af6a1f4f5
	github.com/eapache/go-resiliency v1.2.0
	github.com/jinzhu/gorm v1.9.12
	github.com/opentracing/opentracing-go v1.1.0
	github.com/openzipkin-contrib/zipkin-go-opentracing v0.4.5
	github.com/openzipkin/zipkin-go v0.2.2
	github.com/prometheus/client_golang v1.6.0
	github.com/sirupsen/logrus v1.6.0
	github.com/spf13/viper v1.7.0
	github.com/streadway/amqp v0.0.0-20200108173154-1c71cc93ed71
	go.uber.org/zap v1.10.0
)
